Tidy GenomicRanges (from Michael Love) - 4 Bootstrap overlap
…
Now combine with the per-iteration total count:

totals <- boots |> 
    group_by(iter) |>
    summarize(total=n()) |>
    as_tibble()
null |> dplyr::left_join(totals) |>
    mutate(rate = any_hits/total)
##  Joining with `by = join_by(iter)`
##  # A tibble: 30 × 4
##    iter  any_hits total    rate
##    <fct>    <int> <int>   <dbl>
##  1 1           59  6031 0.00978
##  2 2           58  5710 0.0102 
##  3 3           73  5758 0.0127 
##  4 4           50  5927 0.00844
##  5 5           37  5713 0.00648
##  6 6           59  5888 0.0100 
##  # ℹ 24 more rows
…
