Tidy GenomicRanges (from Michael Love) - 8 Many genomic models
…
Typically we have a little less than 50 genes per tile:

summary(as.vector(table(rowData(se)$tile)))
##     Min. 1st Qu.  Median    Mean 3rd Qu.    Max. 
##     5.00   44.00   49.00   46.98   51.25   59.00

Next, we want to create a nested table, where tidySE objects are grouped by tile and placed within a column of the table. There are a few choices on how to proceed. One option would be to pivot_wider the tidySE, as in this chunk below:

se |>
    filter(.feature %in% rownames(se)[1:5]) |>
    select(.sample, strain, time, .feature, logcounts) |>
    pivot_wider(names_from = .feature, values_from = logcounts)
##  tidySummarizedExperiment says: A data frame is returned for independent data analysis.
##  # A tibble: 30 × 8
##    .sample    strain   time SPAC212.09c SPAC212.04c SPAC977.11 SPAC977.13c
##    <chr>      <fct>   <dbl>       <dbl>       <dbl>      <dbl>       <dbl>
##  1 GSM1368276 wt     0.0833      -1.30       -1.51      -0.705      -1.85 
##  2 GSM1368277 wt     0.0833      -1.03       -2.01      -1.19       -1.27 
##  3 GSM1368278 wt     0.0833      -0.993      -2.11      -1.13       -1.88 
##  4 GSM1368279 wt     0.167       -0.802      -1.40      -0.690      -0.324
##  5 GSM1368280 wt     0.167       -0.574      -1.06      -0.847      -0.399
##  6 GSM1368281 wt     0.167       -0.685      -0.880     -0.685      -0.571
##  # ℹ 24 more rows
##  # ℹ 1 more variable: SPAC977.15 <dbl>

This ends up being a bit slower than just extracting the information with assay and transposing it.

First let’s create our nested dataset:

library(purrr)
nested <- se |>
    nest(data = -tile)
nested
##  # A tibble: 56 × 2
##     tile data           
##    <int> <list>         
##  1     1 <RngdSmmE[,30]>
##  2     2 <RngdSmmE[,30]>
##  3     3 <RngdSmmE[,30]>
##  4     4 <RngdSmmE[,30]>
##  5     5 <RngdSmmE[,30]>
##  6     6 <RngdSmmE[,30]>
##  # ℹ 50 more rows

Now, by row, extract out and transpose log scaled counts:

nested <- nested |>
    mutate(trainx = map(data, ~ {
        t(assay(.x, "logcounts"))
    }))
nested
##  # A tibble: 56 × 3
##     tile data            trainx         
##    <int> <list>          <list>         
##  1     1 <RngdSmmE[,30]> <dbl [30 × 20]>
##  2     2 <RngdSmmE[,30]> <dbl [30 × 54]>
##  3     3 <RngdSmmE[,30]> <dbl [30 × 41]>
##  4     4 <RngdSmmE[,30]> <dbl [30 × 54]>
##  5     5 <RngdSmmE[,30]> <dbl [30 × 44]>
##  6     6 <RngdSmmE[,30]> <dbl [30 × 53]>
##  # ℹ 50 more rows

We fit an elastic net model (Friedman, Hastie, and Tibshirani 2010).

Friedman, Jerome H., Trevor Hastie, and Rob Tibshirani. 2010. “Regularization Paths for Generalized Linear Models via Coordinate Descent.” Journal of Statistical Software 33 (1): 1–22. https://doi.org/10.18637/jss.v033.i01.

library(glmnet)
y <- colData(se)$time
nested <- nested |>
    mutate(fit = map(trainx, ~ {
        glmnet(x = .x, y = y, alpha = .5, lambda = .1)
    }))
nested
##  # A tibble: 56 × 4
##     tile data            trainx          fit    
##    <int> <list>          <list>          <list> 
##  1     1 <RngdSmmE[,30]> <dbl [30 × 20]> <elnet>
##  2     2 <RngdSmmE[,30]> <dbl [30 × 54]> <elnet>
##  3     3 <RngdSmmE[,30]> <dbl [30 × 41]> <elnet>
##  4     4 <RngdSmmE[,30]> <dbl [30 × 54]> <elnet>
##  5     5 <RngdSmmE[,30]> <dbl [30 × 44]> <elnet>
##  6     6 <RngdSmmE[,30]> <dbl [30 × 53]> <elnet>
##  # ℹ 50 more rows

We use the elastic net model, to predict the design from the gene expression (a variable number and set of genes per tile):

nested <- nested |>
    mutate(
        pred = map2(trainx, fit, ~ {
            predict(.y, newx = .x)[,1]
        }),
        n = map_dbl(data, nrow),
        in_r2 = map_dbl(pred, ~ cor(.x, y)^2)
    )
nested
##  # A tibble: 56 × 7
##     tile data            trainx          fit     pred           n in_r2
##    <int> <list>          <list>          <list>  <list>     <dbl> <dbl>
##  1     1 <RngdSmmE[,30]> <dbl [30 × 20]> <elnet> <dbl [30]>    20 0.851
##  2     2 <RngdSmmE[,30]> <dbl [30 × 54]> <elnet> <dbl [30]>    54 0.908
##  3     3 <RngdSmmE[,30]> <dbl [30 × 41]> <elnet> <dbl [30]>    41 0.906
##  4     4 <RngdSmmE[,30]> <dbl [30 × 54]> <elnet> <dbl [30]>    54 0.880
##  5     5 <RngdSmmE[,30]> <dbl [30 × 44]> <elnet> <dbl [30]>    44 0.912
##  6     6 <RngdSmmE[,30]> <dbl [30 × 53]> <elnet> <dbl [30]>    53 0.892
##  # ℹ 50 more rows
…
