Tidy GenomicRanges (from Michael Love) - 9 Isoform analysis
…
The exons ranges are missing some of our key metadata from txp. We can add this, by first select-ing what we want from txp, turning this into a tibble and left_join-ing to the exons. I add an all.equal step to make sure we have the two tables lined up, before we add the extra columns with cbind.

Some of this code wouldn’t be necessary for TranscriptDb with more details exons output, as with ensembldb.

txp_data <- txp |>
    select(tx_id, gene_id, ntxp, the_one, .drop_ranges=TRUE) |>
    as_tibble()
ids <- dplyr::left_join(
    tibble(tx_id = exons$tx_id),
    txp_data,
    by="tx_id"
)
ids
##  # A tibble: 67,595 × 4
##    tx_id gene_id    ntxp the_one
##    <chr> <chr>     <int>   <int>
##  1 1     100287102     3       1
##  2 1     100287102     3       1
##  3 1     100287102     3       1
##  4 2     100287102     3       0
##  5 2     100287102     3       0
##  6 2     100287102     3       0
##  # ℹ 67,589 more rows
…
